{
    "componente": [
        {
            "home_homeCamere": {
                "screen": {
                    "name": "home"
                },
                "front_sections": {
                    "name": "homeCamere"
                },
                "tag_translations": [
                    {
                        "it": [
                            {
                                "language_id": 1,
                                "tag": [
                                    {
                                        "tag": "camere_section_titulo1",
                                        "value": "LE NOSTRE PROPOSTE"
                                    },
                                    {
                                        "tag": "camere_image1_titulo",
                                        "value": "Villetta Bouganville"
                                    },
                                    {
                                        "tag": "camere_image1_detalle1",
                                        "value": "1 Camera da letto"
                                    },
                                    {
                                        "tag": "camere_image2_titulo",
                                        "value": "Residence Solaria"
                                    },
                                    {
                                        "tag": "camere_image2_detalle1",
                                        "value": "1 Camera da letto"
                                    },
                                    {
                                        "tag": "camere_image3_titulo",
                                        "value": "Villetta Bouganville"
                                    },
                                    {
                                        "tag": "camere_image3_detalle1",
                                        "value": "1 Camera da letto"
                                    },
                                    {
                                        "tag": "camere_image4_titulo",
                                        "value": "Villa Ludduì"
                                    },
                                    {
                                        "tag": "camere_image4_detalle1",
                                        "value": "1 Camera da letto"
                                    },
                                    {
                                        "tag": "camere_image5_titulo",
                                        "value": "Villa Ludduì"
                                    },
                                    {
                                        "tag": "camere_image5_detalle1",
                                        "value": "1 Camera da letto"
                                    },
                                    {
                                        "tag": "<camere_image_infocase>                                                                                                                                                                                                                                                                                                                                                                                                                                                                                                                                                    </camere_image_infocase3>",
                                        "value": "Si"
                                    },                                                                                                                                                                                    
                                    {
                                        "tag": "camere_image_veditutto",
                                        "value": "VEDI TUTTO"
                                    }                                                                                                                                             
                                ]
                            }
                        ]
                    },
                    {
                        "en": [
                            {
                                "language_id": 2,
                                "tag": [
                                    {
                                        "tag": "camere_section_titulo1",
                                        "value": "OUR PROPOSALS"
                                    },
                                    {
                                        "tag": "camere_image1_titulo",
                                        "value": "Villetta Bouganville"
                                    },
                                    {
                                        "tag": "camere_image1_detalle1",
                                        "value":"1 Bedroom"
                                    },
                                    {
                                        "tag": "camere_image2_titulo",
                                        "value": "Residence Solaria"
                                    },
                                    {
                                        "tag": "camere_image2_detalle1",
                                        "value": "1 Bedroom"
                                    },
                                    {
                                        "tag": "camere_image3_titulo",
                                        "value": "Villetta Bouganville"
                                    },
                                    {
                                        "tag": "camere_image3_detalle1",
                                        "value": "1 Bedroom"
                                    },
                                    {
                                        "tag": "camere_image4_titulo",
                                        "value": "Villa Ludduì"
                                    },
                                    {
                                        "tag": "camere_image4_detalle1",
                                        "value": "1 Bedroom"
                                    },
                                    {
                                        "tag": "camere_image5_titulo",
                                        "value": "Villa Ludduì"
                                    },
                                    {
                                        "tag": "camere_image5_detalle1",
                                        "value": "1 Bedroom"
                                    },
                                    {
                                        "tag": "<camere_image_infocase>                                                                                                                                                                                                                                                                                                                                                                                                                                                                                                                                                    </camere_image_infocase3>",
                                        "value": "Yes"
                                    },                                                                                                                                                                                    
                                    {
                                        "tag": "camere_image_veditutto",
                                        "value": "SEE ALL"
                                    }                                   
                                ]
                            }
                        ]
                    },
                    {
                        "de": [
                            {
                                "language_id": 3,
                                "tag": [
                                    {
                                        "tag": "camere_section_titulo1",
                                        "value": "UNSERE VORSCHLÄGE"
                                    },
                                    {
                                        "tag": "camere_image1_titulo",
                                        "value": "Villetta Bouganville"
                                    },
                                    {
                                        "tag": "camere_image1_detalle1",
                                        "value": "1 Schlafzimmer"
                                    },
                                    {
                                        "tag": "camere_image2_titulo",
                                        "value": "Residence Solaria"
                                    },
                                    {
                                        "tag": "camere_image2_detalle1",
                                        "value": "1 Schlafzimmer"
                                    },
                                    {
                                        "tag": "camere_image3_titulo",
                                        "value": "Villetta Bouganville"
                                    },
                                    {
                                        "tag": "camere_image3_detalle1",
                                        "value": "1 Schlafzimmer"
                                    },
                                    {
                                        "tag": "camere_image4_titulo",
                                        "value": "Villa Ludduì"
                                    },
                                    {
                                        "tag": "camere_image4_detalle1",
                                        "value": "1 Schlafzimmer"
                                    },
                                    {
                                        "tag": "camere_image5_titulo",
                                        "value": "Villa Ludduì"
                                    },
                                    {
                                        "tag": "camere_image5_detalle1",
                                        "value": "1 Schlafzimmer"
                                    },
                                    {
                                        "tag": "<camere_image_infocase>                                                                                                                                                                                                                                                                                                                                                                                                                                                                                                                                                    </camere_image_infocase3>",
                                        "value": "Es"
                                    },                                                                                                                                                                                    
                                    {
                                        "tag": "camere_image_veditutto",
                                        "value": "SEHEN SIE ALLES"
                                    }                                     
                                ]
                            }
                        ]
                    }            
                ]
            }
        }
    ]
}