code,name
BACK,Back Office
NULL,aboutUs
NULL,esperience
NULL,newsletter
NULL,homeCamere
NULL,services
NULL,navbar
NULL,forms
NULL,my_account
NULL,booking_wizard
NULL,booking_1
NULL,booking_2
NULL,booking_3
NULL,cookies
NULL,villa_detail
NULL,blog
NULL,error
