room_season_id,language_id,name,description
1,1,Bouganville stagione 1,NULL
2,1,Bouganville stagione 1,NULL
3,1,Bouganville stagione 2,NULL
4,1,Bouganville stagione 2,NULL
5,1,Bouganville stagione 3,NULL
6,1,Bouganville stagione 3,NULL
7,1,Bouganville stagione 4,NULL
8,1,Bouganville stagione 4,NULL
9,1,Bouganville stagione 5,NULL
10,1,Bouganville stagione 5,NULL
11,1,Bouganville stagione 6,NULL
12,1,Bouganville stagione 6,NULL
13,1,Bouganville stagione 7,NULL
14,1,Bouganville stagione 7,NULL
15,1,Bouganville stagione 8,NULL
16,1,Bouganville stagione 8,NULL
17,1,Bouganville stagione 9,NULL
18,1,Bouganville stagione 9,NULL
19,1,Bouganville stagione 10,NULL
20,1,Bouganville stagione 10,NULL
21,1,Bouganville stagione 11,NULL
22,1,Bouganville stagione 11,NULL
23,1,Bouganville stagione 12,NULL
24,1,Bouganville stagione 12,NULL
25,1,Bouganville stagione 13,NULL
26,1,Bouganville stagione 13,NULL
27,1,Bouganville stagione 14,NULL
28,1,Bouganville stagione 14,NULL
29,1,Bouganville stagione 15,NULL
30,1,Bouganville stagione 15,NULL
31,1,Luddui Bilo stagione 1,NULL
32,1,Luddui Bilo stagione 2,NULL
33,1,Luddui Bilo stagione 3,NULL
34,1,Luddui Bilo stagione 4,NULL
35,1,Luddui Bilo stagione 5,NULL
36,1,Luddui Bilo stagione 6,NULL
37,1,Luddui Bilo stagione 7,NULL
38,1,Luddui Bilo stagione 8,NULL
39,1,Luddui Bilo stagione 9,NULL
40,1,Luddui Bilo stagione 10,NULL
41,1,Luddui Bilo stagione 11,NULL
42,1,Luddui Bilo stagione 12,NULL
43,1,Luddui Bilo stagione 13,NULL
44,1,Luddui Bilo stagione 14,NULL
45,1,Luddui Bilo stagione 15,NULL
46,1,Budoni centro 2 stagione 1,NULL
47,1,Budoni centro 2 stagione 2,NULL
48,1,Budoni centro 2 stagione 3,NULL
49,1,Budoni centro 2 stagione 4,NULL
50,1,Budoni centro 2 stagione 5,NULL
51,1,Solaria Stagioni 1,NULL
52,1,Solaria Stagioni 1,NULL
53,1,Solaria Stagioni 1,NULL
54,1,Solaria Stagioni 1,NULL
55,1,Solaria Stagioni 1,NULL
56,1,Solaria Stagioni 1,NULL
57,1,Solaria Stagioni 1,NULL
58,1,Solaria Stagioni 1,NULL
59,1,Solaria Stagioni 2,NULL
60,1,Solaria Stagioni 2,NULL
61,1,Solaria Stagioni 2,NULL
62,1,Solaria Stagioni 2,NULL
63,1,Solaria Stagioni 2,NULL
64,1,Solaria Stagioni 2,NULL
65,1,Solaria Stagioni 2,NULL
66,1,Solaria Stagioni 2,NULL
67,1,Solaria Stagioni 3,NULL
68,1,Solaria Stagioni 3,NULL
69,1,Solaria Stagioni 3,NULL
70,1,Solaria Stagioni 3,NULL
71,1,Solaria Stagioni 3,NULL
72,1,Solaria Stagioni 3,NULL
73,1,Solaria Stagioni 3,NULL
74,1,Solaria Stagioni 3,NULL
75,1,Solaria Stagioni 4,NULL
76,1,Solaria Stagioni 4,NULL
77,1,Solaria Stagioni 4,NULL
78,1,Solaria Stagioni 4,NULL
79,1,Solaria Stagioni 1,NULL
80,1,Solaria Stagioni 4,NULL
81,1,Solaria Stagioni 4,NULL
82,1,Solaria Stagioni 4,NULL
83,1,Solaria Stagioni 1,NULL
84,1,Solaria Stagioni 4,NULL
85,1,Solaria Stagioni 1,NULL
86,1,Solaria Stagioni 5,NULL
87,1,Solaria Stagioni 1,NULL
88,1,Solaria Stagioni 5,NULL
89,1,Solaria Stagioni 1,NULL
90,1,Solaria Stagioni 5,NULL
91,1,Solaria Stagioni 5,NULL
92,1,Solaria Stagioni 1,NULL
93,1,Solaria Stagioni 5,NULL
94,1,Solaria Stagioni 1,NULL
95,1,Solaria Stagioni 5,NULL
96,1,Solaria Stagioni 1,NULL
97,1,Solaria Stagioni 5,NULL
98,1,Solaria Stagioni 2,NULL
99,1,Solaria Stagioni 5,NULL
100,1,Solaria Stagioni 2,NULL
101,1,Solaria Stagioni 6,NULL
102,1,Solaria Stagioni 2,NULL
103,1,Solaria Stagioni 6,NULL
104,1,Solaria Stagioni 2,NULL
105,1,Solaria Stagioni 6,NULL
106,1,Solaria Stagioni 2,NULL
107,1,Solaria Stagioni 6,NULL
108,1,Solaria Stagioni 2,NULL
109,1,Solaria Stagioni 6,NULL
110,1,Solaria Stagioni 2,NULL
111,1,Solaria Stagioni 6,NULL
112,1,Solaria Stagioni 2,NULL
113,1,Solaria Stagioni 6,NULL
114,1,Solaria Stagioni 3,NULL
115,1,Solaria Stagioni 6,NULL
116,1,Solaria Stagioni 3,NULL
117,1,Solaria Stagioni 7,NULL
118,1,Solaria Stagioni 3,NULL
119,1,Solaria Stagioni 7,NULL
120,1,Solaria Stagioni 3,NULL
121,1,Solaria Stagioni 7,NULL
122,1,Solaria Stagioni 3,NULL
123,1,Solaria Stagioni 7,NULL
124,1,Solaria Stagioni 3,NULL
125,1,Solaria Stagioni 7,NULL
126,1,Solaria Stagioni 3,NULL
127,1,Solaria Stagioni 7,NULL
128,1,Solaria Stagioni 3,NULL
129,1,Solaria Stagioni 7,NULL
130,1,Solaria Stagioni 4,NULL
131,1,Solaria Stagioni 7,NULL
132,1,Solaria Stagioni 4,NULL
133,1,Solaria Stagioni 8,NULL
134,1,Solaria Stagioni 4,NULL
135,1,Solaria Stagioni 8,NULL
136,1,Solaria Stagioni 4,NULL
137,1,Solaria Stagioni 8,NULL
138,1,Solaria Stagioni 4,NULL
139,1,Solaria Stagioni 8,NULL
140,1,Solaria Stagioni 4,NULL
141,1,Solaria Stagioni 8,NULL
142,1,Solaria Stagioni 4,NULL
143,1,Solaria Stagioni 8,NULL
144,1,Solaria Stagioni 4,NULL
145,1,Solaria Stagioni 8,NULL
146,1,Solaria Stagioni 5,NULL
147,1,Solaria Stagioni 8,NULL
148,1,Solaria Stagioni 9,NULL
149,1,Solaria Stagioni 5,NULL
150,1,Solaria Stagioni 9,NULL
151,1,Solaria Stagioni 5,NULL
152,1,Solaria Stagioni 9,NULL
153,1,Solaria Stagioni 5,NULL
154,1,Solaria Stagioni 9,NULL
155,1,Solaria Stagioni 5,NULL
156,1,Solaria Stagioni 9,NULL
158,1,Solaria Stagioni 9,NULL
159,1,Solaria Stagioni 9,NULL
160,1,Solaria Stagioni 9,NULL
161,1,Solaria Stagioni 10,NULL
162,1,Solaria Stagioni 10,NULL
157,1,Solaria Stagioni 5,NULL
163,1,Solaria Stagioni 10,NULL
164,1,Solaria Stagioni 5,NULL
165,1,Solaria Stagioni 10,NULL
166,1,Solaria Stagioni 5,NULL
167,1,Solaria Stagioni 10,NULL
168,1,Solaria Stagioni 6,NULL
169,1,Solaria Stagioni 10,NULL
170,1,Solaria Stagioni 6,NULL
171,1,Solaria Stagioni 10,NULL
172,1,Solaria Stagioni 6,NULL
173,1,Solaria Stagioni 10,NULL
174,1,Solaria Stagioni 6,NULL
175,1,Solaria Stagioni 11,NULL
176,1,Solaria Stagioni 6,NULL
177,1,Solaria Stagioni 11,NULL
178,1,Solaria Stagioni 6,NULL
179,1,Solaria Stagioni 11,NULL
180,1,Solaria Stagioni 6,NULL
181,1,Solaria Stagioni 11,NULL
182,1,Solaria Stagioni 6,NULL
183,1,Solaria Stagioni 11,NULL
184,1,Solaria Stagioni 7,NULL
185,1,Solaria Stagioni 11,NULL
186,1,Solaria Stagioni 7,NULL
187,1,Solaria Stagioni 11,NULL
188,1,Solaria Stagioni 7,NULL
189,1,Solaria Stagioni 11,NULL
190,1,Solaria Stagioni 7,NULL
191,1,Solaria Stagioni 12,NULL
193,1,Solaria Stagioni 12,NULL
194,1,Solaria Stagioni 12,NULL
195,1,Solaria Stagioni 12,NULL
196,1,Solaria Stagioni 12,NULL
192,1,Solaria Stagioni 7,NULL
197,1,Solaria Stagioni 12,NULL
198,1,Solaria Stagioni 7,NULL
199,1,Solaria Stagioni 7,NULL
200,1,Solaria Stagioni 7,NULL
201,1,Solaria Stagioni 12,NULL
202,1,Solaria Stagioni 8,NULL
203,1,Solaria Stagioni 12,NULL
204,1,Solaria Stagioni 13,NULL
205,1,Solaria Stagioni 8,NULL
207,1,Solaria Stagioni 8,NULL
206,1,Solaria Stagioni 13,NULL
209,1,Solaria Stagioni 13,NULL
208,1,Solaria Stagioni 8,NULL
211,1,Solaria Stagioni 8,NULL
210,1,Solaria Stagioni 13,NULL
213,1,Solaria Stagioni 8,NULL
212,1,Solaria Stagioni 13,NULL
214,1,Solaria Stagioni 8,NULL
215,1,Solaria Stagioni 13,NULL
216,1,Solaria Stagioni 8,NULL
217,1,Solaria Stagioni 13,NULL
218,1,Solaria Stagioni 9,NULL
219,1,Solaria Stagioni 13,NULL
220,1,Solaria Stagioni 9,NULL
221,1,Solaria Stagioni 14,NULL
222,1,Solaria Stagioni 14,NULL
223,1,Solaria Stagioni 9,NULL
224,1,Solaria Stagioni 14,NULL
225,1,Solaria Stagioni 9,NULL
226,1,Solaria Stagioni 14,NULL
227,1,Solaria Stagioni 9,NULL
229,1,Solaria Stagioni 9,NULL
228,1,Solaria Stagioni 14,NULL
230,1,Solaria Stagioni 9,NULL
231,1,Solaria Stagioni 14,NULL
232,1,Solaria Stagioni 9,NULL
233,1,Solaria Stagioni 14,NULL
234,1,Solaria Stagioni 10,NULL
235,1,Solaria Stagioni 14,NULL
237,1,Solaria Stagioni 15,NULL
236,1,Solaria Stagioni 10,NULL
238,1,Solaria Stagioni 15,NULL
239,1,Solaria Stagioni 10,NULL
240,1,Solaria Stagioni 15,NULL
241,1,Solaria Stagioni 10,NULL
242,1,Solaria Stagioni 15,NULL
243,1,Solaria Stagioni 10,NULL
244,1,Solaria Stagioni 15,NULL
245,1,Solaria Stagioni 10,NULL
247,1,Solaria Stagioni 10,NULL
246,1,Solaria Stagioni 15,NULL
248,1,Solaria Stagioni 10,NULL
249,1,Solaria Stagioni 15,NULL
250,1,Solaria Stagioni 11,NULL
251,1,Solaria Stagioni 15,NULL
252,1,Solaria Stagioni 11,NULL
253,1,Solaria Stagioni 11,NULL
254,1,Solaria Stagioni 11,NULL
255,1,Solaria Stagioni 11,NULL
256,1,Solaria Stagioni 11,NULL
257,1,Solaria Stagioni 11,NULL
258,1,Solaria Stagioni 11,NULL
259,1,Solaria Stagioni 12,NULL
260,1,Solaria Stagioni 12,NULL
261,1,Solaria Stagioni 12,NULL
262,1,Solaria Stagioni 12,NULL
263,1,Solaria Stagioni 12,NULL
264,1,Solaria Stagioni 12,NULL
265,1,Solaria Stagioni 12,NULL
266,1,Solaria Stagioni 12,NULL
267,1,Solaria Stagioni 13,NULL
268,1,Solaria Stagioni 13,NULL
269,1,Solaria Stagioni 13,NULL
270,1,Solaria Stagioni 13,NULL
271,1,Solaria Stagioni 13,NULL
272,1,Solaria Stagioni 13,NULL
273,1,Solaria Stagioni 13,NULL
274,1,Solaria Stagioni 13,NULL
275,1,Solaria Stagioni 14,NULL
276,1,Solaria Stagioni 14,NULL
277,1,Solaria Stagioni 14,NULL
278,1,Solaria Stagioni 14,NULL
279,1,Solaria Stagioni 14,NULL
280,1,Solaria Stagioni 14,NULL
281,1,Solaria Stagioni 14,NULL
282,1,Solaria Stagioni 14,NULL
283,1,Solaria Stagioni 15,NULL
284,1,Solaria Stagioni 15,NULL
285,1,Solaria Stagioni 15,NULL
286,1,Solaria Stagioni 15,NULL
287,1,Solaria Stagioni 15,NULL
288,1,Solaria Stagioni 15,NULL
289,1,Solaria Stagioni 15,NULL
290,1,Solaria Stagioni 15,NULL
291,1,BUDONI CENTRO 1 stagione 1,NULL
292,1,BUDONI CENTRO 1 stagione 2,NULL
293,1,BUDONI CENTRO 1 stagione 3,NULL
294,1,BUDONI CENTRO 1 stagione 4,NULL
295,1,BUDONI CENTRO 1 stagione 5,NULL
296,1,BUDONI CENTRO 1 stagione 6,NULL
297,1,BUDONI CENTRO 1 stagione 7,NULL
298,1,BUDONI CENTRO 1 stagione 8,NULL
299,1,BUDONI CENTRO 1 stagione 9,NULL
300,1,BUDONI CENTRO 1 stagione 10,NULL
301,1,BUDONI CENTRO 1 stagione 11,NULL
302,1,BUDONI CENTRO 1 stagione 12,NULL
303,1,BUDONI CENTRO 1 stagione 13,NULL
304,1,BUDONI CENTRO 1 stagione 14,NULL
305,1,BUDONI CENTRO 1 stagione 15,NULL
306,1,Luddui 'Quadri Stagioni 1,NULL
307,1,Luddui 'Quadri Stagioni 2,NULL
308,1,Luddui 'Quadri Stagioni 3,NULL
309,1,Luddui 'Quadri Stagioni 4,NULL
310,1,Luddui 'Quadri Stagioni 5,NULL
311,1,Luddui 'Quadri Stagioni 6,NULL
312,1,Luddui 'Quadri Stagioni 7,NULL
313,1,Luddui 'Quadri Stagioni 8,NULL
314,1,Luddui 'Quadri Stagioni 9,NULL
315,1,Luddui 'Quadri Stagioni 10,NULL
316,1,Luddui 'Quadri Stagioni 11,NULL
317,1,Luddui 'Quadri Stagioni 12,NULL
318,1,Luddui 'Quadri Stagioni 13,NULL
319,1,Luddui 'Quadri Stagioni 14,NULL
320,1,Luddui 'Quadri Stagioni 15,NULL
321,1,Luddui 1 stagione 1,NULL
322,1,Luddui 1 stagione 2,NULL
323,1,Luddui 1 stagione 3,NULL
324,1,Luddui 1 stagione 4,NULL
325,1,Luddui 1 stagione 5,NULL
326,1,Luddui 1 stagione 6,NULL
327,1,Luddui 1 stagione 7,NULL
328,1,Luddui 1 stagione 8,NULL
329,1,Luddui 1 stagione 9,NULL
330,1,Luddui 1 stagione 10,NULL
331,1,Luddui 1 stagione 11,NULL
332,1,Luddui 1 stagione 12,NULL
333,1,Luddui 1 stagione 13,NULL
334,1,Luddui 1 stagione 14,NULL
335,1,Luddui 1 stagione 15,NULL
